info face="5x5 Pixel" size=50 bold=0 italic=0 charset="" unicode=0 stretchH=100 smooth=1 aa=1 padding=0,0,0,0 spacing=0,0
common lineHeight=46 base=37 scaleW=384 scaleH=256 pages=1 packed=0
page id=0 file="55PIXELBM2.png"
chars count=95
char id=32 x=362 y=38 width=0 height=0 xoffset=0 yoffset=32 xadvance=7 page=0 chnl=0
char id=33 x=371 y=18 width=18 height=40 xoffset=3 yoffset=10 xadvance=14 page=0 chnl=0
char id=34 x=368 y=29 width=20 height=18 xoffset=7 yoffset=8 xadvance=18 page=0 chnl=0
char id=35 x=360 y=19 width=32 height=42 xoffset=3 yoffset=8 xadvance=28 page=0 chnl=0
char id=36 x=360 y=14 width=32 height=48 xoffset=3 yoffset=6 xadvance=28 page=0 chnl=0
char id=37 x=353 y=19 width=42 height=42 xoffset=5 yoffset=9 xadvance=45 page=0 chnl=0
char id=38 x=357 y=17 width=34 height=42 xoffset=4 yoffset=8 xadvance=34 page=0 chnl=0
char id=39 x=366 y=31 width=12 height=18 xoffset=7 yoffset=8 xadvance=10 page=0 chnl=0
char id=40 x=361 y=12 width=22 height=52 xoffset=5 yoffset=8 xadvance=17 page=0 chnl=0
char id=41 x=359 y=14 width=22 height=52 xoffset=-2 yoffset=8 xadvance=17 page=0 chnl=0
char id=42 x=359 y=28 width=22 height=20 xoffset=6 yoffset=8 xadvance=20 page=0 chnl=0
char id=43 x=354 y=26 width=28 height=28 xoffset=5 yoffset=16 xadvance=30 page=0 chnl=0
char id=44 x=362 y=29 width=12 height=18 xoffset=2 yoffset=39 xadvance=14 page=0 chnl=0
char id=45 x=356 y=35 width=20 height=10 xoffset=3 yoffset=29 xadvance=17 page=0 chnl=0
char id=46 x=360 y=33 width=12 height=10 xoffset=3 yoffset=40 xadvance=14 page=0 chnl=0
char id=47 x=366 y=15 width=28 height=42 xoffset=-2 yoffset=8 xadvance=14 page=0 chnl=0
char id=48 x=182 y=110 width=34 height=34 xoffset=0 yoffset=0 xadvance=38 page=0 chnl=0
char id=49 x=362 y=2 width=16 height=34 xoffset=0 yoffset=0 xadvance=19 page=0 chnl=0
char id=50 x=278 y=110 width=28 height=34 xoffset=0 yoffset=0 xadvance=32 page=0 chnl=0
char id=51 x=248 y=110 width=28 height=34 xoffset=0 yoffset=0 xadvance=32 page=0 chnl=0
char id=52 x=218 y=218 width=28 height=34 xoffset=0 yoffset=0 xadvance=32 page=0 chnl=0
char id=53 x=218 y=182 width=28 height=34 xoffset=0 yoffset=0 xadvance=32 page=0 chnl=0
char id=54 x=218 y=146 width=28 height=34 xoffset=0 yoffset=0 xadvance=32 page=0 chnl=0
char id=55 x=218 y=110 width=28 height=34 xoffset=0 yoffset=0 xadvance=32 page=0 chnl=0
char id=56 x=338 y=74 width=28 height=34 xoffset=0 yoffset=0 xadvance=32 page=0 chnl=0
char id=57 x=308 y=74 width=28 height=34 xoffset=0 yoffset=0 xadvance=32 page=0 chnl=0
char id=58 x=372 y=19 width=16 height=30 xoffset=3 yoffset=20 xadvance=14 page=0 chnl=0
char id=59 x=372 y=13 width=16 height=38 xoffset=2 yoffset=19 xadvance=14 page=0 chnl=0
char id=60 x=366 y=15 width=28 height=30 xoffset=5 yoffset=14 xadvance=30 page=0 chnl=0
char id=61 x=366 y=18 width=28 height=20 xoffset=5 yoffset=19 xadvance=30 page=0 chnl=0
char id=62 x=366 y=11 width=28 height=30 xoffset=5 yoffset=14 xadvance=30 page=0 chnl=0
char id=63 x=367 y=3 width=26 height=42 xoffset=7 yoffset=8 xadvance=28 page=0 chnl=0
char id=64 x=354 y=-4 width=52 height=52 xoffset=3 yoffset=8 xadvance=51 page=0 chnl=0
char id=65 x=182 y=74 width=34 height=34 xoffset=0 yoffset=0 xadvance=38 page=0 chnl=0
char id=66 x=326 y=38 width=34 height=34 xoffset=0 yoffset=0 xadvance=38 page=0 chnl=0
char id=67 x=290 y=38 width=34 height=34 xoffset=0 yoffset=0 xadvance=38 page=0 chnl=0
char id=68 x=254 y=38 width=34 height=34 xoffset=0 yoffset=0 xadvance=38 page=0 chnl=0
char id=69 x=218 y=38 width=34 height=34 xoffset=0 yoffset=0 xadvance=38 page=0 chnl=0
char id=70 x=182 y=38 width=34 height=34 xoffset=0 yoffset=0 xadvance=38 page=0 chnl=0
char id=71 x=146 y=218 width=34 height=34 xoffset=0 yoffset=0 xadvance=38 page=0 chnl=0
char id=72 x=146 y=182 width=34 height=34 xoffset=0 yoffset=0 xadvance=38 page=0 chnl=0
char id=73 x=146 y=146 width=34 height=34 xoffset=0 yoffset=0 xadvance=38 page=0 chnl=0
char id=74 x=278 y=74 width=28 height=34 xoffset=0 yoffset=0 xadvance=32 page=0 chnl=0
char id=75 x=248 y=74 width=28 height=34 xoffset=0 yoffset=0 xadvance=32 page=0 chnl=0
char id=76 x=218 y=74 width=28 height=34 xoffset=0 yoffset=0 xadvance=32 page=0 chnl=0
char id=77 x=146 y=110 width=34 height=34 xoffset=0 yoffset=0 xadvance=38 page=0 chnl=0
char id=78 x=146 y=74 width=34 height=34 xoffset=0 yoffset=0 xadvance=38 page=0 chnl=0
char id=79 x=146 y=38 width=34 height=34 xoffset=0 yoffset=0 xadvance=38 page=0 chnl=0
char id=80 x=326 y=2 width=34 height=34 xoffset=0 yoffset=0 xadvance=38 page=0 chnl=0
char id=81 x=290 y=2 width=34 height=34 xoffset=0 yoffset=0 xadvance=38 page=0 chnl=0
char id=82 x=254 y=2 width=34 height=34 xoffset=0 yoffset=0 xadvance=38 page=0 chnl=0
char id=83 x=218 y=2 width=34 height=34 xoffset=0 yoffset=0 xadvance=38 page=0 chnl=0
char id=84 x=182 y=2 width=34 height=34 xoffset=0 yoffset=0 xadvance=38 page=0 chnl=0
char id=85 x=146 y=2 width=34 height=34 xoffset=0 yoffset=0 xadvance=38 page=0 chnl=0
char id=86 x=110 y=218 width=34 height=34 xoffset=0 yoffset=0 xadvance=38 page=0 chnl=0
char id=87 x=110 y=182 width=34 height=34 xoffset=0 yoffset=0 xadvance=38 page=0 chnl=0
char id=88 x=110 y=146 width=34 height=34 xoffset=0 yoffset=0 xadvance=38 page=0 chnl=0
char id=89 x=110 y=110 width=34 height=34 xoffset=0 yoffset=0 xadvance=38 page=0 chnl=0
char id=90 x=110 y=74 width=34 height=34 xoffset=0 yoffset=0 xadvance=38 page=0 chnl=0
char id=91 x=368 y=-5 width=24 height=50 xoffset=1 yoffset=9 xadvance=14 page=0 chnl=0
char id=92 x=373 y=-3 width=14 height=42 xoffset=5 yoffset=8 xadvance=14 page=0 chnl=0
char id=93 x=368 y=-9 width=24 height=50 xoffset=-2 yoffset=9 xadvance=14 page=0 chnl=0
char id=94 x=367 y=2 width=26 height=24 xoffset=4 yoffset=9 xadvance=24 page=0 chnl=0
char id=95 x=363 y=8 width=34 height=8 xoffset=-3 yoffset=51 xadvance=28 page=0 chnl=0
char id=96 x=373 y=4 width=14 height=12 xoffset=8 yoffset=8 xadvance=17 page=0 chnl=0
char id=97 x=110 y=38 width=34 height=34 xoffset=0 yoffset=0 xadvance=38 page=0 chnl=0
char id=98 x=110 y=2 width=34 height=34 xoffset=0 yoffset=0 xadvance=38 page=0 chnl=0
char id=99 x=74 y=218 width=34 height=34 xoffset=0 yoffset=0 xadvance=38 page=0 chnl=0
char id=100 x=74 y=182 width=34 height=34 xoffset=0 yoffset=0 xadvance=38 page=0 chnl=0
char id=101 x=74 y=146 width=34 height=34 xoffset=0 yoffset=0 xadvance=38 page=0 chnl=0
char id=102 x=74 y=110 width=34 height=34 xoffset=0 yoffset=0 xadvance=38 page=0 chnl=0
char id=103 x=74 y=74 width=34 height=34 xoffset=0 yoffset=0 xadvance=38 page=0 chnl=0
char id=104 x=74 y=38 width=34 height=34 xoffset=0 yoffset=0 xadvance=38 page=0 chnl=0
char id=105 x=74 y=2 width=34 height=34 xoffset=0 yoffset=0 xadvance=38 page=0 chnl=0
char id=106 x=182 y=218 width=28 height=34 xoffset=0 yoffset=0 xadvance=32 page=0 chnl=0
char id=107 x=182 y=182 width=28 height=34 xoffset=0 yoffset=0 xadvance=32 page=0 chnl=0
char id=108 x=182 y=146 width=28 height=34 xoffset=0 yoffset=0 xadvance=32 page=0 chnl=0
char id=109 x=38 y=218 width=34 height=34 xoffset=0 yoffset=0 xadvance=38 page=0 chnl=0
char id=110 x=38 y=182 width=34 height=34 xoffset=0 yoffset=0 xadvance=38 page=0 chnl=0
char id=111 x=38 y=146 width=34 height=34 xoffset=0 yoffset=0 xadvance=38 page=0 chnl=0
char id=112 x=38 y=110 width=34 height=34 xoffset=0 yoffset=0 xadvance=38 page=0 chnl=0
char id=113 x=38 y=74 width=34 height=34 xoffset=0 yoffset=0 xadvance=38 page=0 chnl=0
char id=114 x=38 y=38 width=34 height=34 xoffset=0 yoffset=0 xadvance=38 page=0 chnl=0
char id=115 x=38 y=2 width=34 height=34 xoffset=0 yoffset=0 xadvance=38 page=0 chnl=0
char id=116 x=2 y=218 width=34 height=34 xoffset=0 yoffset=0 xadvance=38 page=0 chnl=0
char id=117 x=2 y=182 width=34 height=34 xoffset=0 yoffset=0 xadvance=38 page=0 chnl=0
char id=118 x=2 y=146 width=34 height=34 xoffset=0 yoffset=0 xadvance=38 page=0 chnl=0
char id=119 x=2 y=110 width=34 height=34 xoffset=0 yoffset=0 xadvance=38 page=0 chnl=0
char id=120 x=2 y=74 width=34 height=34 xoffset=0 yoffset=0 xadvance=38 page=0 chnl=0
char id=121 x=2 y=38 width=34 height=34 xoffset=0 yoffset=0 xadvance=38 page=0 chnl=0
char id=122 x=2 y=2 width=34 height=34 xoffset=0 yoffset=0 xadvance=38 page=0 chnl=0
char id=123 x=368 y=-18 width=24 height=52 xoffset=3 yoffset=8 xadvance=17 page=0 chnl=0
char id=124 x=376 y=-20 width=8 height=52 xoffset=5 yoffset=8 xadvance=13 page=0 chnl=0
char id=125 x=368 y=-22 width=24 height=52 xoffset=-4 yoffset=8 xadvance=17 page=0 chnl=0
char id=126 x=365 y=-5 width=30 height=14 xoffset=5 yoffset=22 xadvance=30 page=0 chnl=0
